[
  {"id":1,"message":"<p>This is an <a href='#'>important</a> message. Nullam sagittis. Fusce egestas elit eget lorem. Curabitur at lacus ac velit ornare lobortis. Sed hendrerit. Pellentesque auctor neque nec urna. In turpis. Sed magna purus, fermentum eu, tincidunt eu, varius ut, felis.</p><p><a href='#' class='button'>Button Link</a></p>","severity":"warning","location":"all"},
  {"id":2,"message":"<p>This is a <em>less <a href='#'>important</a></em> but still noteworthy message. Nullam sagittis. Fusce egestas elit eget lorem. Curabitur at lacus ac velit ornare lobortis. Sed hendrerit. Pellentesque auctor neque nec urna. In turpis. Sed magna purus, fermentum eu, tincidunt eu, varius ut, felis. </p><p><a href='#' class='button'>Button Link</a></p>","severity":"notice","location":"front"},
  {"id":3,"message":"<p>This is a message that maybe isn't super <a href='#'>important</a>. Nullam sagittis. Fusce egestas elit eget lorem. Curabitur at lacus ac velit ornare lobortis.<Sed hendrerit. Pellentesque auctor neque nec urna. In turpis. Sed magna purus, fermentum eu, tincidunt eu, varius ut, felis./p><p><a href='#' class='button'>Button Link</a></p>","severity":"info","location":"front"}
]
